^E:\UB\MotionBase03\MotionDllTest01\MotionDllTest01.vcxproj
E:\UB\LOCAL_DEMOS\TEST DEMOS 2018\MotionLib.lib
E:\UB\LOCAL_DEMOS\TEST DEMOS 2018\MotionLib.exp
^C:\Unity\Motion04\MotionDllTest01\MotionDllTest01.vcxproj
C:\Unity\LOCAL_DEMOS\TEST DEMOS 2018\MotionLib.lib
C:\Unity\LOCAL_DEMOS\TEST DEMOS 2018\MotionLib.exp
